Adds a Variable Numbering the Observations Within Each By Group — derive_var_obs_number • admiral
…
    Examples

library(dplyr, warn.conflicts = FALSE)
library(admiral.test)
data("admiral_vs")

admiral_vs %>%
  select(USUBJID, VSTESTCD, VISITNUM, VSTPTNUM) %>%
  filter(VSTESTCD %in% c("HEIGHT", "WEIGHT")) %>%
  derive_var_obs_number(
    by_vars = vars(USUBJID, VSTESTCD),
    order = vars(VISITNUM, VSTPTNUM)
  )
#> # A tibble: 2,304 x 5
#>    USUBJID     VSTESTCD VISITNUM VSTPTNUM  ASEQ
#>    <chr>       <chr>       <dbl>    <dbl> <int>
#>  1 01-701-1015 HEIGHT          1       NA     1
#>  2 01-701-1015 WEIGHT          1       NA     1
#>  3 01-701-1015 WEIGHT          3       NA     2
#>  4 01-701-1015 WEIGHT          4       NA     3
#>  5 01-701-1015 WEIGHT          5       NA     4
#>  6 01-701-1015 WEIGHT          7       NA     5
#>  7 01-701-1015 WEIGHT          8       NA     6
#>  8 01-701-1015 WEIGHT          9       NA     7
#>  9 01-701-1015 WEIGHT         10       NA     8
#> 10 01-701-1015 WEIGHT         11       NA     9
#> # … with 2,294 more rows
…
