Create dataset of single doses — create_single_dose_dataset • admiral
…
create_single_dose_dataset(data,
  dose_freq = EXDOSFRQ,
  start_date = ASTDT,
  start_datetime = ASTDTM,
  end_date = AENDT,
  end_datetime = AENDTM,
  lookup_table = dose_freq_lookup,
  lookup_column = CDISC_VALUE,
  nominal_time = NFRLT,
  keep_source_vars = exprs(
    USUBJID, EXDOSFRQ, ASTDT, ASTDTM, AENDT, AENDTM, NFRLT
  )
)
#> # A tibble: 58 × 7
#>    USUBJID EXDOSFRQ ASTDT      ASTDTM              AENDT     
#>    <chr>   <chr>    <date>     <dttm>              <date>    
#>  1 P01     ONCE     2021-01-01 2021-01-01 08:00:00 2021-01-01
#>  2 P01     ONCE     2021-01-01 2021-01-01 20:00:00 2021-01-01
#>  3 P01     ONCE     2021-01-02 2021-01-02 08:00:00 2021-01-02
#>  4 P01     ONCE     2021-01-02 2021-01-02 20:00:00 2021-01-02
#>  5 P01     ONCE     2021-01-03 2021-01-03 08:00:00 2021-01-03
#>  6 P01     ONCE     2021-01-03 2021-01-03 20:00:00 2021-01-03
#>  7 P01     ONCE     2021-01-04 2021-01-04 08:00:00 2021-01-04
#>  8 P01     ONCE     2021-01-04 2021-01-04 20:00:00 2021-01-04
#>  9 P01     ONCE     2021-01-05 2021-01-05 08:00:00 2021-01-05
#> 10 P01     ONCE     2021-01-05 2021-01-05 20:00:00 2021-01-05
#> # ℹ 48 more rows
#> # ℹ 2 more variables: AENDTM <dttm>, NFRLT <dbl>
…
create_single_dose_dataset(
  ex_mod,
  start_date = EXSTDT,
  start_datetime = EXSTDTM,
  end_date = EXENDT,
  end_datetime = EXENDTM,
  keep_source_vars = exprs(
    STUDYID, USUBJID, EXTRT, EXDOSE, EXDOSFRQ,
    DCUTDT, EXSTDT, EXSTDTM, EXENDT, EXENDTM, EXSTDTC, EXENDTC
  )
)
#> # A tibble: 553 × 12
#>    STUDYID USUBJID EXTRT EXDOSE EXDOSFRQ DCUTDT     EXSTDT    
#>    <chr>   <chr>   <chr>  <dbl> <chr>    <date>     <date>    
#>  1 01      1015    PLAC       0 ONCE     2015-03-06 2014-01-02
#>  2 01      1015    PLAC       0 ONCE     2015-03-06 2014-01-03
#>  3 01      1015    PLAC       0 ONCE     2015-03-06 2014-01-04
#>  4 01      1015    PLAC       0 ONCE     2015-03-06 2014-01-05
#>  5 01      1015    PLAC       0 ONCE     2015-03-06 2014-01-06
#>  6 01      1015    PLAC       0 ONCE     2015-03-06 2014-01-07
#>  7 01      1015    PLAC       0 ONCE     2015-03-06 2014-01-08
#>  8 01      1015    PLAC       0 ONCE     2015-03-06 2014-01-09
#>  9 01      1015    PLAC       0 ONCE     2015-03-06 2014-01-10
#> 10 01      1015    PLAC       0 ONCE     2015-03-06 2014-01-11
#> # ℹ 543 more rows
#> # ℹ 5 more variables: EXSTDTM <dttm>, EXENDT <date>, EXENDTM <dttm>,
#> #   EXSTDTC <chr>, EXENDTC <chr>
…
