Creates a queries dataset as input dataset to the dataset_queries argument in derive_vars_query() — create_query_data • admiral
…
# The get_smq_terms function from admiral.test is used for this example.
# In a real application a company-specific function must be used.
create_query_data(
  queries = list(pregsmq, bilismq),
  get_smq_fun = admiral.test:::get_smq_terms,
  meddra_version = "20.1"
)
#> # A tibble: 43 x 6
#>    TERM_NAME         TERM_LEVEL QUERY_NAME       QUERY_ID QUERY_SCOPE VAR_PREFIX
#>    <chr>             <chr>      <chr>               <int> <chr>       <chr>     
#>  1 Achromotrichia c… AEDECOD    Pregnancy and n… 20000185 NARROW      SMQ02     
#>  2 Craniosynostosis  AEDECOD    Pregnancy and n… 20000185 NARROW      SMQ02     
#>  3 Hypophosphatasia  AEDECOD    Pregnancy and n… 20000185 NARROW      SMQ02     
#>  4 Congenital pyelo… AEDECOD    Pregnancy and n… 20000185 NARROW      SMQ02     
#>  5 Uterine contract… AEDECOD    Pregnancy and n… 20000185 NARROW      SMQ02     
#>  6 Ductus arteriosu… AEDECOD    Pregnancy and n… 20000185 NARROW      SMQ02     
#>  7 Pseudotruncus ar… AEDECOD    Pregnancy and n… 20000185 NARROW      SMQ02     
#>  8 Lipomeningocele   AEDECOD    Pregnancy and n… 20000185 NARROW      SMQ02     
#>  9 Macrocephaly      AEDECOD    Pregnancy and n… 20000185 NARROW      SMQ02     
#> 10 Carnitine palmit… AEDECOD    Pregnancy and n… 20000185 NARROW      SMQ02     
#> # … with 33 more rows
…
      prefix = "CQ03",
      name = "Special issues of interest",
      definition = list(
        smq_select(
          name = "Pregnancy and neonatal topics (SMQ)",
          scope = "NARROW"
        ),
        cqterms
      )
    )
  ),
  get_smq_fun = admiral.test:::get_smq_terms,
  meddra_version = "20.1"
)
#> # A tibble: 23 x 5
#>    TERM_NAME                   TERM_LEVEL QUERY_NAME          TERM_ID VAR_PREFIX
#>    <chr>                       <chr>      <chr>                 <int> <chr>     
#>  1 Achromotrichia congenital   AEDECOD    Special issues of …      NA CQ03      
#>  2 Craniosynostosis            AEDECOD    Special issues of …      NA CQ03      
#>  3 Hypophosphatasia            AEDECOD    Special issues of …      NA CQ03      
#>  4 Congenital pyelocaliectasis AEDECOD    Special issues of …      NA CQ03      
#>  5 Uterine contractions durin… AEDECOD    Special issues of …      NA CQ03      
#>  6 Ductus arteriosus prematur… AEDECOD    Special issues of …      NA CQ03      
#>  7 Pseudotruncus arteriosus    AEDECOD    Special issues of …      NA CQ03      
#>  8 Lipomeningocele             AEDECOD    Special issues of …      NA CQ03      
#>  9 Macrocephaly                AEDECOD    Special issues of …      NA CQ03      
#> 10 Carnitine palmitoyltransfe… AEDECOD    Special issues of …      NA CQ03      
#> # … with 13 more rows
…
