Derive Age Groups — derive_var_agegr_fda • admiral
…
    Author

    Ondrej Slama

    Examples

library(dplyr, warn.conflicts = FALSE)
library(admiral.test)
data(admiral_dm)

admiral_dm %>%
  derive_var_agegr_fda(age_var = AGE, new_var = AGEGR1) %>%
  select(SUBJID, AGE, AGEGR1)
#> # A tibble: 306 x 3
#>    SUBJID   AGE AGEGR1
#>    <chr>  <dbl> <fct> 
#>  1 1015      63 18-64 
#>  2 1023      64 18-64 
#>  3 1028      71 >=65  
#>  4 1033      74 >=65  
#>  5 1034      77 >=65  
#>  6 1047      85 >=65  
#>  7 1057      59 18-64 
#>  8 1097      68 >=65  
#>  9 1111      81 >=65  
#> 10 1115      84 >=65  
#> # … with 296 more rows
…
admiral_dm %>%
  derive_var_agegr_ema(age_var = AGE, new_var = AGEGR1) %>%
  select(SUBJID, AGE, AGEGR1)
#> # A tibble: 306 x 3
#>    SUBJID   AGE AGEGR1
#>    <chr>  <dbl> <fct> 
#>  1 1015      63 18-64 
#>  2 1023      64 18-64 
#>  3 1028      71 65-84 
#>  4 1033      74 65-84 
#>  5 1034      77 65-84 
#>  6 1047      85 >=85  
#>  7 1057      59 18-64 
#>  8 1097      68 65-84 
#>  9 1111      81 65-84 
#> 10 1115      84 65-84 
#> # … with 296 more rows
…
