Merge variables from a second dataset — derive_merged_vars • admiral
…
library(dplyr)
library(magrittr)

data("ex")
data("dm")

# adding first treatment start date for each patient
derive_merged_vars(dm,
                   dataset_add = ex,
                   filter_add = exprs(EXDOSE > 0 | str_detect(EXTRT, 'PLACEBO')),
                   new_vars = exprs(TRTSDT := ymd(EXSTDTC)),
                   filter_order = exprs(EXSTDTC, EXSEQ),
                   filter_mode = "first") %>%
  select(USUBJID, TRTSDT)
#> # A tibble: 306 x 2
#>    USUBJID     TRTSDT    
#>    <chr>       <date>    
#>  1 01-701-1015 2014-01-02
#>  2 01-701-1023 2012-08-05
#>  3 01-701-1028 2013-07-19
#>  4 01-701-1033 2014-03-18
#>  5 01-701-1034 2014-07-01
#>  6 01-701-1047 2013-02-12
#>  7 01-701-1057 NA        
#>  8 01-701-1097 2014-01-01
#>  9 01-701-1111 2012-09-07
#> 10 01-701-1115 2012-11-30
#> # … with 296 more rows
…
