Derive LOCF (Last Observation Carried Forward) Records — derive_locf_records • admiral
…
derive_locf_records(
  dataset = advs,
  dataset_ref = advs_expected_obsv,
  by_vars = exprs(STUDYID, USUBJID, PARAMCD),
  order = exprs(AVISITN, AVISIT),
  keep_vars = exprs(PARAMN)
)
#> # A tibble: 23 × 8
#>    STUDYID USUBJID     PARAMCD PARAMN  AVAL AVISITN AVISIT   DTYPE
#>    <chr>   <chr>       <chr>    <dbl> <dbl>   <dbl> <chr>    <chr>
#>  1 CDISC01 01-701-1015 DIABP        2    51       0 BASELINE NA   
#>  2 CDISC01 01-701-1015 DIABP        2    50       2 WEEK 2   NA   
#>  3 CDISC01 01-701-1015 DIABP        2    51       4 WEEK 4   NA   
#>  4 CDISC01 01-701-1015 DIABP        2    50       6 WEEK 6   NA   
#>  5 CDISC01 01-701-1015 PULSE        1    61       0 BASELINE NA   
#>  6 CDISC01 01-701-1015 PULSE        1    60       2 WEEK 6   NA   
#>  7 CDISC01 01-701-1015 PULSE        1    60       6 WEEK 6   LOCF 
#>  8 CDISC01 01-701-1015 SYSBP        3   121       0 BASELINE NA   
#>  9 CDISC01 01-701-1015 SYSBP        3   121       2 WEEK 2   NA   
#> 10 CDISC01 01-701-1015 SYSBP        3   121       4 WEEK 4   NA   
#> # ℹ 13 more rows
…
