Derive a Disposition Status at a Specific Timepoint — derive_var_disposition_status • admiral
…
admiral_dm %>%
  derive_var_disposition_status(
    dataset_ds = admiral_ds,
    new_var = EOSSTT,
    status_var = DSDECOD,
    filter_ds = DSCAT == "DISPOSITION EVENT"
  ) %>%
  select(STUDYID, USUBJID, EOSSTT)
#> # A tibble: 306 x 3
#>    STUDYID      USUBJID     EOSSTT      
#>    <chr>        <chr>       <chr>       
#>  1 CDISCPILOT01 01-701-1015 COMPLETED   
#>  2 CDISCPILOT01 01-701-1023 DISCONTINUED
#>  3 CDISCPILOT01 01-701-1028 COMPLETED   
#>  4 CDISCPILOT01 01-701-1033 DISCONTINUED
#>  5 CDISCPILOT01 01-701-1034 COMPLETED   
#>  6 CDISCPILOT01 01-701-1047 DISCONTINUED
#>  7 CDISCPILOT01 01-701-1057 NOT STARTED 
#>  8 CDISCPILOT01 01-701-1097 COMPLETED   
#>  9 CDISCPILOT01 01-701-1111 DISCONTINUED
#> 10 CDISCPILOT01 01-701-1115 DISCONTINUED
#> # … with 296 more rows
…
admiral_dm %>%
  derive_var_disposition_status(
    dataset_ds = admiral_ds,
    new_var = EOSSTT,
    status_var = DSDECOD,
    format_new_var = format_eoxxstt1,
    filter_ds = DSCAT == "DISPOSITION EVENT"
  ) %>%
  select(STUDYID, USUBJID, EOSSTT)
#> # A tibble: 306 x 3
#>    STUDYID      USUBJID     EOSSTT                    
#>    <chr>        <chr>       <chr>                     
#>  1 CDISCPILOT01 01-701-1015 COMPLETED                 
#>  2 CDISCPILOT01 01-701-1023 DISCONTINUED DUE TO AE    
#>  3 CDISCPILOT01 01-701-1028 COMPLETED                 
#>  4 CDISCPILOT01 01-701-1033 DISCONTINUED NOT DUE TO AE
#>  5 CDISCPILOT01 01-701-1034 COMPLETED                 
#>  6 CDISCPILOT01 01-701-1047 DISCONTINUED DUE TO AE    
#>  7 CDISCPILOT01 01-701-1057 NOT STARTED               
#>  8 CDISCPILOT01 01-701-1097 COMPLETED                 
#>  9 CDISCPILOT01 01-701-1111 DISCONTINUED DUE TO AE    
#> 10 CDISCPILOT01 01-701-1115 DISCONTINUED DUE TO AE    
#> # … with 296 more rows
…
