Derive Last Dose with User-Defined Groupings — derive_var_last_dose_grp • admiral
…
   nchar(EXENDTC) >= 10,
   by_vars = vars(STUDYID, USUBJID),
   dose_date = EXSTDTC,
   new_var = LDGRP,
   grp_brks = c(0, 20, 40, 60),
   grp_lbls = c("Low", "Medium", "High"),
   include_lowest = TRUE,
   right = TRUE,
   dose_var = EXDOSE,
   analysis_date = AESTDTC,
   single_dose_condition = (EXSTDTC == EXENDTC),
   traceability_vars = dplyr::vars(LDOSEDOM = "EX", LDOSESEQ = EXSEQ, LDOSEVAR = "EXENDTC")
   ) %>%
   select(USUBJID, LDGRP, LDOSEDOM, LDOSESEQ, LDOSEVAR)
#> # A tibble: 100 x 5
#>    USUBJID     LDGRP LDOSEDOM LDOSESEQ LDOSEVAR
#>    <chr>       <chr> <chr>       <int> <chr>   
#>  1 01-701-1015 <NA>  <NA>           NA <NA>    
#>  2 01-701-1015 <NA>  <NA>           NA <NA>    
#>  3 01-701-1015 <NA>  <NA>           NA <NA>    
#>  4 01-701-1023 Low   EX              7 EXENDTC 
#>  5 01-701-1023 Low   EX              3 EXENDTC 
#>  6 01-701-1023 Low   EX              3 EXENDTC 
#>  7 01-701-1023 Low   EX              3 EXENDTC 
#>  8 01-701-1028 <NA>  <NA>           NA <NA>    
#>  9 01-701-1028 <NA>  <NA>           NA <NA>    
#> 10 01-701-1034 <NA>  <NA>           NA <NA>    
#> # … with 90 more rows
…
