Merge a Character Variable — derive_var_merged_character • admiral
…
derive_var_merged_character(
  admiral_dm,
  dataset_add = admiral_ds,
  by_vars = vars(STUDYID, USUBJID),
  new_var = DISPSTAT,
  filter_add = DSCAT == "DISPOSITION EVENT",
  source_var = DSDECOD,
  case = "title"
) %>%
  select(STUDYID, USUBJID, AGE, AGEU, DISPSTAT)
#> # A tibble: 306 x 5
#>    STUDYID      USUBJID       AGE AGEU  DISPSTAT                   
#>    <chr>        <chr>       <dbl> <chr> <chr>                      
#>  1 CDISCPILOT01 01-701-1015    63 YEARS Completed                  
#>  2 CDISCPILOT01 01-701-1023    64 YEARS Adverse Event              
#>  3 CDISCPILOT01 01-701-1028    71 YEARS Completed                  
#>  4 CDISCPILOT01 01-701-1033    74 YEARS Study Terminated By Sponsor
#>  5 CDISCPILOT01 01-701-1034    77 YEARS Completed                  
#>  6 CDISCPILOT01 01-701-1047    85 YEARS Adverse Event              
#>  7 CDISCPILOT01 01-701-1057    59 YEARS Screen Failure             
#>  8 CDISCPILOT01 01-701-1097    68 YEARS Completed                  
#>  9 CDISCPILOT01 01-701-1111    81 YEARS Adverse Event              
#> 10 CDISCPILOT01 01-701-1115    84 YEARS Adverse Event              
#> # … with 296 more rows
…
