Adds a Variable Flagging the Maximal / Minimal Value Within a Group of Observations — derive_var_worst_flag • admiral
…
derive_var_worst_flag(
  input,
  by_vars = vars(USUBJID, PARAMCD, AVISIT),
  order = vars(desc(ADT)),
  new_var = WORSTFL,
  param_var = PARAMCD,
  analysis_var = AVAL,
  worst_high = c("PARAM01", "PARAM03"),
  worst_low = "PARAM02"
)
#> # A tibble: 25 x 7
#>    STUDYID USUBJID PARAMCD AVISIT    ADT         AVAL WORSTFL
#>    <chr>   <chr>   <chr>   <chr>     <date>     <dbl> <chr>  
#>  1 TEST01  PAT01   PARAM02 BASELINE  2021-04-27    10 Y      
#>  2 TEST01  PAT01   PARAM02 SCREENING 2021-04-25    14 Y      
#>  3 TEST01  PAT01   PARAM02 SCREENING 2021-04-27    15 NA     
#>  4 TEST01  PAT01   PARAM02 SCREENING 2021-04-23    15 NA     
#>  5 TEST01  PAT01   PARAM02 WEEK 2    2021-04-30    12 Y      
#>  6 TEST01  PAT02   PARAM02 BASELINE  2021-04-30    12 Y      
#>  7 TEST01  PAT02   PARAM02 BASELINE  2021-04-25    14 NA     
#>  8 TEST01  PAT02   PARAM02 SCREENING 2021-04-27    15 Y      
#>  9 TEST01  PAT02   PARAM02 WEEK 1    2021-04-27    10 Y      
#> 10 TEST01  PAT02   PARAM02 WEEK 1    2021-04-23    15 NA     
#> # … with 15 more rows
…
