Derive Age Groups — derive_agegr_fda • admiral
…
    Details

    derive_agegr_fda Derive age groups according to FDA
(https://prsinfo.clinicaltrials.gov/results_definitions.html ->
Baseline Measure Information).

derive_agegr_ema Derive age groups according to EMA
(https://eudract.ema.europa.eu/result.html -> Results - Data Dictionary -> Age range).

    Examples

data(dm)
derive_agegr_fda(dm, AGE, AGEGR1)
#> # A tibble: 306 x 26
#>    STUDYID DOMAIN USUBJID SUBJID RFSTDTC RFENDTC RFXSTDTC RFXENDTC RFICDTC
#>    <chr>   <chr>  <chr>   <chr>  <chr>   <chr>   <chr>    <chr>    <chr>  
#>  1 CDISCP… DM     01-701… 1015   "2014-… "2014-… "2014-0… "2014-0… ""     
#>  2 CDISCP… DM     01-701… 1023   "2012-… "2012-… "2012-0… "2012-0… ""     
#>  3 CDISCP… DM     01-701… 1028   "2013-… "2014-… "2013-0… "2014-0… ""     
#>  4 CDISCP… DM     01-701… 1033   "2014-… "2014-… "2014-0… "2014-0… ""     
#>  5 CDISCP… DM     01-701… 1034   "2014-… "2014-… "2014-0… "2014-1… ""     
#>  6 CDISCP… DM     01-701… 1047   "2013-… "2013-… "2013-0… "2013-0… ""     
#>  7 CDISCP… DM     01-701… 1057   ""      ""      ""       ""       ""     
#>  8 CDISCP… DM     01-701… 1097   "2014-… "2014-… "2014-0… "2014-0… ""     
#>  9 CDISCP… DM     01-701… 1111   "2012-… "2012-… "2012-0… "2012-0… ""     
#> 10 CDISCP… DM     01-701… 1115   "2012-… "2013-… "2012-1… "2013-0… ""     
#> # … with 296 more rows, and 17 more variables: RFPENDTC <chr>, DTHDTC <chr>,
#> #   DTHFL <chr>, SITEID <chr>, AGE <dbl>, AGEU <chr>, SEX <chr>, RACE <chr>,
#> #   ETHNIC <chr>, ARMCD <chr>, ARM <chr>, ACTARMCD <chr>, ACTARM <chr>,
#> #   COUNTRY <chr>, DMDTC <chr>, DMDY <dbl>, AGEGR1 <fct>
…
#> 89   89   >=65
#> 90   90   >=65
#> 91   91   >=65
#> 92   92   >=65
#> 93   93   >=65
#> 94   94   >=65
#> 95   95   >=65
#> 96   96   >=65
#> 97   97   >=65
#> 98   98   >=65
#> 99   99   >=65
#> 100 100   >=65
data(dm)
derive_agegr_ema(dm, AGE, AGEGR1)
#> # A tibble: 306 x 26
#>    STUDYID DOMAIN USUBJID SUBJID RFSTDTC RFENDTC RFXSTDTC RFXENDTC RFICDTC
#>    <chr>   <chr>  <chr>   <chr>  <chr>   <chr>   <chr>    <chr>    <chr>  
#>  1 CDISCP… DM     01-701… 1015   "2014-… "2014-… "2014-0… "2014-0… ""     
#>  2 CDISCP… DM     01-701… 1023   "2012-… "2012-… "2012-0… "2012-0… ""     
#>  3 CDISCP… DM     01-701… 1028   "2013-… "2014-… "2013-0… "2014-0… ""     
#>  4 CDISCP… DM     01-701… 1033   "2014-… "2014-… "2014-0… "2014-0… ""     
#>  5 CDISCP… DM     01-701… 1034   "2014-… "2014-… "2014-0… "2014-1… ""     
#>  6 CDISCP… DM     01-701… 1047   "2013-… "2013-… "2013-0… "2013-0… ""     
#>  7 CDISCP… DM     01-701… 1057   ""      ""      ""       ""       ""     
#>  8 CDISCP… DM     01-701… 1097   "2014-… "2014-… "2014-0… "2014-0… ""     
#>  9 CDISCP… DM     01-701… 1111   "2012-… "2012-… "2012-0… "2012-0… ""     
#> 10 CDISCP… DM     01-701… 1115   "2012-… "2013-… "2012-1… "2013-0… ""     
#> # … with 296 more rows, and 17 more variables: RFPENDTC <chr>, DTHDTC <chr>,
#> #   DTHFL <chr>, SITEID <chr>, AGE <dbl>, AGEU <chr>, SEX <chr>, RACE <chr>,
#> #   ETHNIC <chr>, ARMCD <chr>, ARM <chr>, ACTARMCD <chr>, ACTARM <chr>,
#> #   COUNTRY <chr>, DMDTC <chr>, DMDY <dbl>, AGEGR1 <fct>
…
