Derive Last Dose Date(-time) — derive_last_dose • admiral
…
      nchar(EXENDTC) >= 10,
    dose_start = EXSTDTC,
    dose_end = EXENDTC,
    analysis_date = AESTDTC,
    dataset_seq_var = AESEQ,
    new_var = LDOSEDTM,
    output_datetime = TRUE,
    check_dates_only = FALSE
  ) %>%
  select(STUDYID, USUBJID, AESEQ, AESTDTC, LDOSEDTM)
#> Warning: `derive_last_dose()` was deprecated in admiral 0.6.0.
#> Please use `derive_var_last_dose_date()` instead.
#> This warning is displayed once every 8 hours.
#> Call `lifecycle::last_lifecycle_warnings()` to see where this warning was generated.
#> # A tibble: 100 x 5
#>    STUDYID      USUBJID     AESEQ AESTDTC    LDOSEDTM           
#>    <chr>        <chr>       <dbl> <chr>      <dttm>             
#>  1 CDISCPILOT01 01-701-1015     1 2014-01-03 NA                 
#>  2 CDISCPILOT01 01-701-1015     2 2014-01-03 NA                 
#>  3 CDISCPILOT01 01-701-1015     3 2014-01-09 NA                 
#>  4 CDISCPILOT01 01-701-1023     3 2012-08-26 2012-08-11 00:00:00
#>  5 CDISCPILOT01 01-701-1023     1 2012-08-07 2012-08-07 00:00:00
#>  6 CDISCPILOT01 01-701-1023     2 2012-08-07 2012-08-07 00:00:00
#>  7 CDISCPILOT01 01-701-1023     4 2012-08-07 2012-08-07 00:00:00
#>  8 CDISCPILOT01 01-701-1028     1 2013-07-21 NA                 
#>  9 CDISCPILOT01 01-701-1028     2 2013-08-08 NA                 
#> 10 CDISCPILOT01 01-701-1034     1 2014-08-27 NA                 
#> # … with 90 more rows
…
  derive_last_dose(
    head(ex_single, 100),
    filter_ex = (EXDOSE > 0 | (EXDOSE == 0 & grepl("PLACEBO", EXTRT))) &
      nchar(EXENDTC) >= 10,
    dose_start = EXSTDTC,
    dose_end = EXENDTC,
    analysis_date = AESTDTC,
    dataset_seq_var = AESEQ,
    new_var = LDOSEDTM,
    output_datetime = TRUE,
    check_dates_only = FALSE,
    traceability_vars = dplyr::vars(LDOSEDOM = "EX", LDOSESEQ = EXSEQ, LDOSEVAR = "EXSTDTC")
  ) %>%
  select(STUDYID, USUBJID, AESEQ, AESTDTC, LDOSEDTM, LDOSEDOM, LDOSESEQ, LDOSEVAR)
#> # A tibble: 100 x 8
#>    STUDYID  USUBJID AESEQ AESTDTC LDOSEDTM            LDOSEDOM LDOSESEQ LDOSEVAR
#>    <chr>    <chr>   <dbl> <chr>   <dttm>              <chr>       <int> <chr>   
#>  1 CDISCPI… 01-701…     1 2014-0… NA                  NA             NA NA      
#>  2 CDISCPI… 01-701…     2 2014-0… NA                  NA             NA NA      
#>  3 CDISCPI… 01-701…     3 2014-0… NA                  NA             NA NA      
#>  4 CDISCPI… 01-701…     3 2012-0… 2012-08-11 00:00:00 EX              7 EXSTDTC 
#>  5 CDISCPI… 01-701…     1 2012-0… 2012-08-07 00:00:00 EX              3 EXSTDTC 
#>  6 CDISCPI… 01-701…     2 2012-0… 2012-08-07 00:00:00 EX              3 EXSTDTC 
#>  7 CDISCPI… 01-701…     4 2012-0… 2012-08-07 00:00:00 EX              3 EXSTDTC 
#>  8 CDISCPI… 01-701…     1 2013-0… NA                  NA             NA NA      
#>  9 CDISCPI… 01-701…     2 2013-0… NA                  NA             NA NA      
#> 10 CDISCPI… 01-701…     1 2014-0… NA                  NA             NA NA      
#> # … with 90 more rows
…
