Derive a Disposition Reason at a Specific Timepoint — derive_disposition_reason • admiral
…
    Examples

library(dplyr, warn.conflicts = FALSE)
data("dm")
data("ds")

# Derive DCSREAS using the default format
derive_disposition_reason(
  dataset = dm,
  dataset_ds = ds,
  new_var = DCSREAS,
  reason_var = DSDECOD,
  filter_ds = DSCAT == "DISPOSITION EVENT"
)
#> # A tibble: 306 x 26
#>    STUDYID DOMAIN USUBJID SUBJID RFSTDTC RFENDTC RFXSTDTC RFXENDTC RFICDTC
#>    <chr>   <chr>  <chr>   <chr>  <chr>   <chr>   <chr>    <chr>    <chr>  
#>  1 CDISCP… DM     01-701… 1015   "2014-… "2014-… "2014-0… "2014-0… ""     
#>  2 CDISCP… DM     01-701… 1023   "2012-… "2012-… "2012-0… "2012-0… ""     
#>  3 CDISCP… DM     01-701… 1028   "2013-… "2014-… "2013-0… "2014-0… ""     
#>  4 CDISCP… DM     01-701… 1033   "2014-… "2014-… "2014-0… "2014-0… ""     
#>  5 CDISCP… DM     01-701… 1034   "2014-… "2014-… "2014-0… "2014-1… ""     
#>  6 CDISCP… DM     01-701… 1047   "2013-… "2013-… "2013-0… "2013-0… ""     
#>  7 CDISCP… DM     01-701… 1057   ""      ""      ""       ""       ""     
#>  8 CDISCP… DM     01-701… 1097   "2014-… "2014-… "2014-0… "2014-0… ""     
#>  9 CDISCP… DM     01-701… 1111   "2012-… "2012-… "2012-0… "2012-0… ""     
#> 10 CDISCP… DM     01-701… 1115   "2012-… "2013-… "2012-1… "2013-0… ""     
#> # … with 296 more rows, and 17 more variables: RFPENDTC <chr>, DTHDTC <chr>,
#> #   DTHFL <chr>, SITEID <chr>, AGE <dbl>, AGEU <chr>, SEX <chr>, RACE <chr>,
#> #   ETHNIC <chr>, ARMCD <chr>, ARM <chr>, ACTARMCD <chr>, ACTARM <chr>,
#> #   COUNTRY <chr>, DMDTC <chr>, DMDY <dbl>, DCSREAS <chr>
…
    !(x %in% c("COMPLETED", "SCREEN FAILURE")) & !is.na(x) ~ out,
    TRUE ~ NA_character_
  )
}
derive_disposition_reason(
  dataset = dm,
  dataset_ds = ds,
  new_var = DCSREAS,
  reason_var = DSDECOD,
  new_var_spe = DCSREASP,
  reason_var_spe = DSTERM,
  format_new_vars = format_dcsreas,
  filter_ds = DSCAT == "DISPOSITION EVENT"
)
#> # A tibble: 306 x 27
#>    STUDYID DOMAIN USUBJID SUBJID RFSTDTC RFENDTC RFXSTDTC RFXENDTC RFICDTC
#>    <chr>   <chr>  <chr>   <chr>  <chr>   <chr>   <chr>    <chr>    <chr>  
#>  1 CDISCP… DM     01-701… 1015   "2014-… "2014-… "2014-0… "2014-0… ""     
#>  2 CDISCP… DM     01-701… 1023   "2012-… "2012-… "2012-0… "2012-0… ""     
#>  3 CDISCP… DM     01-701… 1028   "2013-… "2014-… "2013-0… "2014-0… ""     
#>  4 CDISCP… DM     01-701… 1033   "2014-… "2014-… "2014-0… "2014-0… ""     
#>  5 CDISCP… DM     01-701… 1034   "2014-… "2014-… "2014-0… "2014-1… ""     
#>  6 CDISCP… DM     01-701… 1047   "2013-… "2013-… "2013-0… "2013-0… ""     
#>  7 CDISCP… DM     01-701… 1057   ""      ""      ""       ""       ""     
#>  8 CDISCP… DM     01-701… 1097   "2014-… "2014-… "2014-0… "2014-0… ""     
#>  9 CDISCP… DM     01-701… 1111   "2012-… "2012-… "2012-0… "2012-0… ""     
#> 10 CDISCP… DM     01-701… 1115   "2012-… "2013-… "2012-1… "2013-0… ""     
#> # … with 296 more rows, and 18 more variables: RFPENDTC <chr>, DTHDTC <chr>,
#> #   DTHFL <chr>, SITEID <chr>, AGE <dbl>, AGEU <chr>, SEX <chr>, RACE <chr>,
#> #   ETHNIC <chr>, ARMCD <chr>, ARM <chr>, ACTARMCD <chr>, ACTARM <chr>,
#> #   COUNTRY <chr>, DMDTC <chr>, DMDY <dbl>, DCSREAS <chr>, DCSREASP <chr>
…
