Add New Variable(s) to the Input Dataset Based on Variables from Another Dataset — derive_vars_merged • admiral
…
    Examples

library(admiral.test)
library(dplyr, warn.conflicts = FALSE)
data("admiral_vs")
data("admiral_dm")

# Merging all dm variables to vs
derive_vars_merged(
  admiral_vs,
  dataset_add = select(admiral_dm, -DOMAIN),
  by_vars = vars(STUDYID, USUBJID)
) %>%
  select(STUDYID, USUBJID, VSTESTCD, VISIT, VSTPT, VSSTRESN, AGE, AGEU)
#> # A tibble: 29,643 x 8
#>    STUDYID    USUBJID   VSTESTCD VISIT      VSTPT           VSSTRESN   AGE AGEU 
#>    <chr>      <chr>     <chr>    <chr>      <chr>              <dbl> <dbl> <chr>
#>  1 CDISCPILO… 01-701-1… DIABP    SCREENING… AFTER LYING DO…       64    63 YEARS
#>  2 CDISCPILO… 01-701-1… DIABP    SCREENING… AFTER STANDING…       83    63 YEARS
#>  3 CDISCPILO… 01-701-1… DIABP    SCREENING… AFTER STANDING…       57    63 YEARS
#>  4 CDISCPILO… 01-701-1… DIABP    SCREENING… AFTER LYING DO…       68    63 YEARS
#>  5 CDISCPILO… 01-701-1… DIABP    SCREENING… AFTER STANDING…       59    63 YEARS
#>  6 CDISCPILO… 01-701-1… DIABP    SCREENING… AFTER STANDING…       71    63 YEARS
#>  7 CDISCPILO… 01-701-1… DIABP    BASELINE   AFTER LYING DO…       56    63 YEARS
#>  8 CDISCPILO… 01-701-1… DIABP    BASELINE   AFTER STANDING…       51    63 YEARS
#>  9 CDISCPILO… 01-701-1… DIABP    BASELINE   AFTER STANDING…       61    63 YEARS
#> 10 CDISCPILO… 01-701-1… DIABP    AMBUL ECG… AFTER LYING DO…       67    63 YEARS
#> # … with 29,633 more rows

# Merge last weight to adsl
data("admiral_adsl")
derive_vars_merged(
  admiral_adsl,
  dataset_add = admiral_vs,
  by_vars = vars(STUDYID, USUBJID),
  order = vars(VSDTC),
  mode = "last",
  new_vars = vars(LASTWGT = VSSTRESN, LASTWGTU = VSSTRESU),
  filter_add = VSTESTCD == "WEIGHT",
  match_flag = vsdatafl
) %>%
  select(STUDYID, USUBJID, AGE, AGEU, LASTWGT, LASTWGTU, vsdatafl)
#> # A tibble: 306 x 7
#>    STUDYID      USUBJID       AGE AGEU  LASTWGT LASTWGTU vsdatafl
#>    <chr>        <chr>       <dbl> <chr>   <dbl> <chr>    <lgl>   
#>  1 CDISCPILOT01 01-701-1015    63 YEARS    53.5 kg       TRUE    
#>  2 CDISCPILOT01 01-701-1023    64 YEARS    80.3 kg       TRUE    
#>  3 CDISCPILOT01 01-701-1028    71 YEARS    99.8 kg       TRUE    
#>  4 CDISCPILOT01 01-701-1033    74 YEARS    88.4 kg       TRUE    
#>  5 CDISCPILOT01 01-701-1034    77 YEARS    64.0 kg       TRUE    
#>  6 CDISCPILOT01 01-701-1047    85 YEARS    67.1 kg       TRUE    
#>  7 CDISCPILOT01 01-701-1057    59 YEARS    NA   NA       NA      
#>  8 CDISCPILOT01 01-701-1097    68 YEARS    78.5 kg       TRUE    
#>  9 CDISCPILOT01 01-701-1111    81 YEARS    60.8 kg       TRUE    
#> 10 CDISCPILOT01 01-701-1115    84 YEARS    78.5 kg       TRUE    
#> # … with 296 more rows
…
## Add first exposure datetime and imputation flags to adsl
derive_vars_merged(
  select(admiral_dm, STUDYID, USUBJID),
  dataset_add = ex_ext,
  by_vars = vars(STUDYID, USUBJID),
  new_vars = vars(TRTSDTM = EXSTDTM, TRTSDTF = EXSTDTF, TRTSTMF = EXSTTMF),
  order = vars(EXSTDTM),
  mode = "first"
)
#> # A tibble: 306 x 5
#>    STUDYID      USUBJID     TRTSDTM             TRTSDTF TRTSTMF
#>    <chr>        <chr>       <dttm>              <chr>   <chr>  
#>  1 CDISCPILOT01 01-701-1015 2014-01-02 00:00:00 NA      H      
#>  2 CDISCPILOT01 01-701-1023 2012-08-05 00:00:00 NA      H      
#>  3 CDISCPILOT01 01-701-1028 2013-07-19 00:00:00 NA      H      
#>  4 CDISCPILOT01 01-701-1033 2014-03-18 00:00:00 NA      H      
#>  5 CDISCPILOT01 01-701-1034 2014-07-01 00:00:00 NA      H      
#>  6 CDISCPILOT01 01-701-1047 2013-02-12 00:00:00 NA      H      
#>  7 CDISCPILOT01 01-701-1057 NA                  NA      NA     
#>  8 CDISCPILOT01 01-701-1097 2014-01-01 00:00:00 NA      H      
#>  9 CDISCPILOT01 01-701-1111 2012-09-07 00:00:00 NA      H      
#> 10 CDISCPILOT01 01-701-1115 2012-11-30 00:00:00 NA      H      
#> # … with 296 more rows
…
## Add first exposure datetime and imputation flags to adsl
derive_vars_merged(
  select(admiral_dm, STUDYID, USUBJID),
  dataset_add = ex_ext,
  filter_add = !is.na(EXSTDTM),
  by_vars = vars(STUDYID, USUBJID),
  new_vars = vars(TRTSDTM = EXSTDTM, TRTSDTF = EXSTDTF, TRTSTMF = EXSTTMF),
  order = vars(EXSTDTM),
  mode = "first"
)
#> # A tibble: 306 x 5
#>    STUDYID      USUBJID     TRTSDTM             TRTSDTF TRTSTMF
#>    <chr>        <chr>       <dttm>              <chr>   <chr>  
#>  1 CDISCPILOT01 01-701-1015 2014-01-02 00:00:00 NA      H      
#>  2 CDISCPILOT01 01-701-1023 2012-08-05 00:00:00 NA      H      
#>  3 CDISCPILOT01 01-701-1028 2013-07-19 00:00:00 NA      H      
#>  4 CDISCPILOT01 01-701-1033 2014-03-18 00:00:00 NA      H      
#>  5 CDISCPILOT01 01-701-1034 2014-07-01 00:00:00 NA      H      
#>  6 CDISCPILOT01 01-701-1047 2013-02-12 00:00:00 NA      H      
#>  7 CDISCPILOT01 01-701-1057 NA                  NA      NA     
#>  8 CDISCPILOT01 01-701-1097 2014-01-01 00:00:00 NA      H      
#>  9 CDISCPILOT01 01-701-1111 2012-09-07 00:00:00 NA      H      
#> 10 CDISCPILOT01 01-701-1115 2012-11-30 00:00:00 NA      H      
#> # … with 296 more rows
…
## Add last exposure datetime and imputation flag to adsl
derive_vars_merged(
  select(admiral_dm, STUDYID, USUBJID),
  dataset_add = ex_ext,
  filter_add = !is.na(EXENDTM),
  by_vars = vars(STUDYID, USUBJID),
  new_vars = vars(TRTEDTM = EXENDTM, TRTETMF = EXENTMF),
  order = vars(EXENDTM),
  mode = "last"
)
#> # A tibble: 306 x 4
#>    STUDYID      USUBJID     TRTEDTM             TRTETMF
#>    <chr>        <chr>       <dttm>              <chr>  
#>  1 CDISCPILOT01 01-701-1015 2014-07-02 23:59:59 H      
#>  2 CDISCPILOT01 01-701-1023 2012-09-01 23:59:59 H      
#>  3 CDISCPILOT01 01-701-1028 2014-01-14 23:59:59 H      
#>  4 CDISCPILOT01 01-701-1033 2014-03-31 23:59:59 H      
#>  5 CDISCPILOT01 01-701-1034 2014-12-30 23:59:59 H      
#>  6 CDISCPILOT01 01-701-1047 2013-03-09 23:59:59 H      
#>  7 CDISCPILOT01 01-701-1057 NA                  NA     
#>  8 CDISCPILOT01 01-701-1097 2014-07-09 23:59:59 H      
#>  9 CDISCPILOT01 01-701-1111 2012-09-16 23:59:59 H      
#> 10 CDISCPILOT01 01-701-1115 2013-01-23 23:59:59 H      
#> # … with 296 more rows
…
