Add New Records Within By Groups Using Aggregation Functions — derive_summary_records • admiral
…
# Summarize the average of the triplicate ECG interval values (AVAL)
derive_summary_records(
  adeg,
  by_vars = vars(USUBJID, PARAM, AVISIT),
  fns = list(AVAL ~ mean(., na.rm = TRUE)),
  set_values_to = vars(DTYPE = "AVERAGE")
)
#> # A tibble: 24 x 8
#>    USUBJID  EGSEQ PARAM           AVISIT   EGDTC            AVAL TRTA     DTYPE 
#>    <chr>    <dbl> <chr>           <chr>    <chr>           <dbl> <chr>    <chr> 
#>  1 XYZ-1001     1 QTcF Int. (mse… Baseline 2016-02-24T07:…  385  ""       <NA>  
#>  2 XYZ-1001     2 QTcF Int. (mse… Baseline 2016-02-24T07:…  399  ""       <NA>  
#>  3 XYZ-1001     3 QTcF Int. (mse… Baseline 2016-02-24T07:…  396  ""       <NA>  
#>  4 XYZ-1001    NA QTcF Int. (mse… Baseline <NA>             393. ""       AVERA…
#>  5 XYZ-1001     4 QTcF Int. (mse… Visit 2  2016-03-08T09:…  384  "Placeb… <NA>  
#>  6 XYZ-1001     5 QTcF Int. (mse… Visit 2  2016-03-08T09:…  393  "Placeb… <NA>  
#>  7 XYZ-1001     6 QTcF Int. (mse… Visit 2  2016-03-08T09:…  388  "Placeb… <NA>  
#>  8 XYZ-1001    NA QTcF Int. (mse… Visit 2  <NA>             388. "Placeb… AVERA…
#>  9 XYZ-1001     7 QTcF Int. (mse… Visit 3  2016-03-22T10:…  385  "Placeb… <NA>  
#> 10 XYZ-1001     8 QTcF Int. (mse… Visit 3  2016-03-22T10:…  394  "Placeb… <NA>  
#> # … with 14 more rows
…
