Derive Reference Range Indicator — derive_var_anrind • admiral
…
admiral_vs %>%
  mutate(
    PARAMCD = VSTESTCD,
    AVAL = VSSTRESN
  ) %>%
  filter(PARAMCD %in% c("PULSE", "DIABP")) %>%
  derive_vars_merged(ref_ranges, by_vars = vars(PARAMCD)) %>%
  derive_var_anrind() %>%
  select(USUBJID, PARAMCD, AVAL, ANRLO:ANRIND)
#> # A tibble: 16,411 x 8
#>    USUBJID     PARAMCD  AVAL ANRLO ANRHI  A1LO  A1HI ANRIND
#>    <chr>       <chr>   <dbl> <dbl> <dbl> <dbl> <dbl> <chr> 
#>  1 01-701-1015 DIABP      64    60    80    40    90 NORMAL
#>  2 01-701-1015 DIABP      83    60    80    40    90 HIGH  
#>  3 01-701-1015 DIABP      57    60    80    40    90 LOW   
#>  4 01-701-1015 DIABP      68    60    80    40    90 NORMAL
#>  5 01-701-1015 DIABP      59    60    80    40    90 LOW   
#>  6 01-701-1015 DIABP      71    60    80    40    90 NORMAL
#>  7 01-701-1015 DIABP      56    60    80    40    90 LOW   
#>  8 01-701-1015 DIABP      51    60    80    40    90 LOW   
#>  9 01-701-1015 DIABP      61    60    80    40    90 NORMAL
#> 10 01-701-1015 DIABP      67    60    80    40    90 NORMAL
#> # … with 16,401 more rows
…
