Derive Last Dose Amount — derive_var_last_dose_amt • admiral
…
ae %>%
  head(100) %>%
  derive_var_last_dose_amt(
    head(ex_single, 100),
    filter_ex = (EXDOSE > 0 | (EXDOSE == 0 & grepl("PLACEBO", EXTRT))) &
      nchar(EXENDTC) >= 10,
    dose_date = EXENDTC,
    analysis_date = AESTDTC,
    single_dose_condition = (EXSTDTC == EXENDTC),
    new_var = LDOSE,
    dose_var = EXDOSE
  ) %>%
  select(STUDYID, USUBJID, AESEQ, AESTDTC, LDOSE)
#> # A tibble: 100 x 5
#>    STUDYID      USUBJID     AESEQ AESTDTC    LDOSE
#>    <chr>        <chr>       <dbl> <chr>      <dbl>
#>  1 CDISCPILOT01 01-701-1015     1 2014-01-03    NA
#>  2 CDISCPILOT01 01-701-1015     2 2014-01-03    NA
#>  3 CDISCPILOT01 01-701-1015     3 2014-01-09    NA
#>  4 CDISCPILOT01 01-701-1023     3 2012-08-26     0
#>  5 CDISCPILOT01 01-701-1023     1 2012-08-07     0
#>  6 CDISCPILOT01 01-701-1023     2 2012-08-07     0
#>  7 CDISCPILOT01 01-701-1023     4 2012-08-07     0
#>  8 CDISCPILOT01 01-701-1028     1 2013-07-21    NA
#>  9 CDISCPILOT01 01-701-1028     2 2013-08-08    NA
#> 10 CDISCPILOT01 01-701-1034     1 2014-08-27    NA
#> # … with 90 more rows
…
ae %>%
  head(100) %>%
  derive_var_last_dose_amt(
    head(ex_single, 100),
    filter_ex = (EXDOSE > 0 | (EXDOSE == 0 & grepl("PLACEBO", EXTRT))) &
      nchar(EXENDTC) >= 10,
    dose_date = EXENDTC,
    analysis_date = AESTDTC,
    single_dose_condition = (EXSTDTC == EXENDTC),
    new_var = LDOSE,
    dose_var = EXDOSE,
    traceability_vars = dplyr::vars(LDOSEDOM = "EX", LDOSESEQ = EXSEQ, LDOSEVAR = "EXDOSE")
  ) %>%
  select(STUDYID, USUBJID, AESEQ, AESTDTC, LDOSEDOM, LDOSESEQ, LDOSEVAR, LDOSE)
#> # A tibble: 100 x 8
#>    STUDYID      USUBJID     AESEQ AESTDTC    LDOSEDOM LDOSESEQ LDOSEVAR LDOSE
#>    <chr>        <chr>       <dbl> <chr>      <chr>       <int> <chr>    <dbl>
#>  1 CDISCPILOT01 01-701-1015     1 2014-01-03 <NA>           NA <NA>        NA
#>  2 CDISCPILOT01 01-701-1015     2 2014-01-03 <NA>           NA <NA>        NA
#>  3 CDISCPILOT01 01-701-1015     3 2014-01-09 <NA>           NA <NA>        NA
#>  4 CDISCPILOT01 01-701-1023     3 2012-08-26 EX              7 EXDOSE       0
#>  5 CDISCPILOT01 01-701-1023     1 2012-08-07 EX              3 EXDOSE       0
#>  6 CDISCPILOT01 01-701-1023     2 2012-08-07 EX              3 EXDOSE       0
#>  7 CDISCPILOT01 01-701-1023     4 2012-08-07 EX              3 EXDOSE       0
#>  8 CDISCPILOT01 01-701-1028     1 2013-07-21 <NA>           NA <NA>        NA
#>  9 CDISCPILOT01 01-701-1028     2 2013-08-08 <NA>           NA <NA>        NA
#> 10 CDISCPILOT01 01-701-1034     1 2014-08-27 <NA>           NA <NA>        NA
#> # … with 90 more rows
…
