Derive a Disposition Date — derive_disposition_dt • admiral
…
library(dplyr, warn.conflicts = FALSE)
library(admiral.test)
data("dm")
data("ds")

dm %>%
  derive_disposition_dt(
    dataset_ds = ds,
    new_var = FRVDT,
    dtc = DSSTDTC,
    filter_ds = DSCAT == "OTHER EVENT" & DSDECOD == "FINAL RETRIEVAL VISIT"
  ) %>%
  select(STUDYID, USUBJID, FRVDT)
#> # A tibble: 306 x 3
#>    STUDYID      USUBJID     FRVDT     
#>    <chr>        <chr>       <date>    
#>  1 CDISCPILOT01 01-701-1015 NA        
#>  2 CDISCPILOT01 01-701-1023 2013-02-18
#>  3 CDISCPILOT01 01-701-1028 NA        
#>  4 CDISCPILOT01 01-701-1033 2014-09-15
#>  5 CDISCPILOT01 01-701-1034 NA        
#>  6 CDISCPILOT01 01-701-1047 2013-07-28
#>  7 CDISCPILOT01 01-701-1057 NA        
#>  8 CDISCPILOT01 01-701-1097 NA        
#>  9 CDISCPILOT01 01-701-1111 2013-02-22
#> 10 CDISCPILOT01 01-701-1115 2013-05-20
#> # … with 296 more rows
…
