Derive a Disposition Reason at a Specific Timepoint — derive_vars_disposition_reason • admiral
…
library(dplyr, warn.conflicts = FALSE)
library(admiral.test)
data("admiral_dm")
data("admiral_ds")

# Derive DCSREAS using the default format
admiral_dm %>%
  derive_vars_disposition_reason(
    dataset_ds = admiral_ds,
    new_var = DCSREAS,
    reason_var = DSDECOD,
    filter_ds = DSCAT == "DISPOSITION EVENT"
  ) %>%
  select(STUDYID, USUBJID, DCSREAS)
#> # A tibble: 306 x 3
#>    STUDYID      USUBJID     DCSREAS                    
#>    <chr>        <chr>       <chr>                      
#>  1 CDISCPILOT01 01-701-1015 NA                         
#>  2 CDISCPILOT01 01-701-1023 ADVERSE EVENT              
#>  3 CDISCPILOT01 01-701-1028 NA                         
#>  4 CDISCPILOT01 01-701-1033 STUDY TERMINATED BY SPONSOR
#>  5 CDISCPILOT01 01-701-1034 NA                         
#>  6 CDISCPILOT01 01-701-1047 ADVERSE EVENT              
#>  7 CDISCPILOT01 01-701-1057 SCREEN FAILURE             
#>  8 CDISCPILOT01 01-701-1097 NA                         
#>  9 CDISCPILOT01 01-701-1111 ADVERSE EVENT              
#> 10 CDISCPILOT01 01-701-1115 ADVERSE EVENT              
#> # … with 296 more rows
…
    if_else(x == "OTHER", y, NA_character_)
  }
}
admiral_dm %>%
  derive_vars_disposition_reason(
    dataset_ds = admiral_ds,
    new_var = DCSREAS,
    reason_var = DSDECOD,
    new_var_spe = DCSREASP,
    reason_var_spe = DSTERM,
    format_new_vars = format_dcsreas,
    filter_ds = DSCAT == "DISPOSITION EVENT"
  ) %>%
  select(STUDYID, USUBJID, DCSREAS, DCSREASP)
#> # A tibble: 306 x 4
#>    STUDYID      USUBJID     DCSREAS                     DCSREASP
#>    <chr>        <chr>       <chr>                       <chr>   
#>  1 CDISCPILOT01 01-701-1015 NA                          NA      
#>  2 CDISCPILOT01 01-701-1023 ADVERSE EVENT               NA      
#>  3 CDISCPILOT01 01-701-1028 NA                          NA      
#>  4 CDISCPILOT01 01-701-1033 STUDY TERMINATED BY SPONSOR NA      
#>  5 CDISCPILOT01 01-701-1034 NA                          NA      
#>  6 CDISCPILOT01 01-701-1047 ADVERSE EVENT               NA      
#>  7 CDISCPILOT01 01-701-1057 NA                          NA      
#>  8 CDISCPILOT01 01-701-1097 NA                          NA      
#>  9 CDISCPILOT01 01-701-1111 ADVERSE EVENT               NA      
#> 10 CDISCPILOT01 01-701-1115 ADVERSE EVENT               NA      
#> # … with 296 more rows
…
