Derive Last Dose Date-Time — derive_var_last_dose_date • admiral
…
adae %>%
  derive_var_last_dose_date(
    dataset_ex = ex_single,
    filter_ex = (EXDOSE > 0 | (EXDOSE == 0 & grepl("PLACEBO", EXTRT))) &
      !is.na(EXENDTM),
    dose_date = EXENDTM,
    analysis_date = ASTDTM,
    new_var = LDOSEDTM,
    traceability_vars = vars(LDOSEDOM = "EX", LDOSESEQ = EXSEQ, LDOSEVAR = "EXDOSE")
  ) %>%
  select(STUDYID, USUBJID, AESEQ, AESTDTC, LDOSEDOM, LDOSESEQ, LDOSEVAR, LDOSEDTM)
#> # A tibble: 100 x 8
#>    STUDYID  USUBJID AESEQ AESTDTC LDOSEDOM LDOSESEQ LDOSEVAR LDOSEDTM           
#>    <chr>    <chr>   <dbl> <chr>   <chr>       <int> <chr>    <dttm>             
#>  1 CDISCPI… 01-701…     1 2014-0… NA             NA NA       NA                 
#>  2 CDISCPI… 01-701…     2 2014-0… NA             NA NA       NA                 
#>  3 CDISCPI… 01-701…     3 2014-0… NA             NA NA       NA                 
#>  4 CDISCPI… 01-701…     3 2012-0… EX              7 EXDOSE   2012-08-11 00:00:00
#>  5 CDISCPI… 01-701…     1 2012-0… EX              3 EXDOSE   2012-08-07 00:00:00
#>  6 CDISCPI… 01-701…     2 2012-0… EX              3 EXDOSE   2012-08-07 00:00:00
#>  7 CDISCPI… 01-701…     4 2012-0… EX              3 EXDOSE   2012-08-07 00:00:00
#>  8 CDISCPI… 01-701…     1 2013-0… NA             NA NA       NA                 
#>  9 CDISCPI… 01-701…     2 2013-0… NA             NA NA       NA                 
#> 10 CDISCPI… 01-701…     1 2014-0… NA             NA NA       NA                 
#> # … with 90 more rows
…
