Merge Lookup Table with Source Dataset — derive_vars_merged_lookup • admiral
…
derive_vars_merged_lookup(
  dataset = vs,
  dataset_add = param_lookup,
  by_vars = exprs(VSTESTCD),
  new_vars = exprs(PARAMCD, PARAM),
  print_not_mapped = TRUE
)
#> All `VSTESTCD` are mapped.
#> # A tibble: 21 × 8
#>    STUDYID DOMAIN USUBJID VISIT       VSTESTCD VSTEST      PARAMCD PARAM        
#>    <chr>   <chr>  <chr>   <chr>       <chr>    <chr>       <chr>   <chr>        
#>  1 PILOT01 VS     01-1028 SCREENING   HEIGHT   Height      HEIGHT  Height (cm)  
#>  2 PILOT01 VS     01-1028 SCREENING   TEMP     Temperature TEMP    Temperature …
#>  3 PILOT01 VS     01-1028 BASELINE    TEMP     Temperature TEMP    Temperature …
#>  4 PILOT01 VS     01-1028 WEEK 4      TEMP     Temperature TEMP    Temperature …
#>  5 PILOT01 VS     01-1028 SCREENING 1 WEIGHT   Weight      WEIGHT  Weight (kg)  
#>  6 PILOT01 VS     01-1028 BASELINE    WEIGHT   Weight      WEIGHT  Weight (kg)  
#>  7 PILOT01 VS     01-1028 WEEK 4      WEIGHT   Weight      WEIGHT  Weight (kg)  
#>  8 PILOT01 VS     04-1325 SCREENING   HEIGHT   Height      HEIGHT  Height (cm)  
#>  9 PILOT01 VS     04-1325 SCREENING   TEMP     Temperature TEMP    Temperature …
#> 10 PILOT01 VS     04-1325 BASELINE    TEMP     Temperature TEMP    Temperature …
#> # ℹ 11 more rows
…
