Adds a variable flagging the first or last observation within each by group — derive_extreme_flag • admiral
…
    Examples

library(dplyr, warn.conflicts = FALSE)
data("vs")

# flag last value for each patient, test, and visit, baseline observations are ignored
derive_extreme_flag(vs,
                    new_var = LASTFL,
                    by_vars = rlang::exprs(USUBJID, VSTESTCD, VISIT),
                    order = rlang::exprs(VSTPTNUM),
                    flag_filter = rlang::expr(VISIT != "BASELINE")) %>%
  arrange(USUBJID, VSTESTCD, VISITNUM, VSTPTNUM) %>%
  select(USUBJID, VSTESTCD, VISIT, VSTPTNUM, VSSTRESN, LASTFL)
#> # A tibble: 29,643 x 6
#>    USUBJID     VSTESTCD VISIT               VSTPTNUM VSSTRESN LASTFL
#>    <chr>       <chr>    <chr>                  <dbl>    <dbl> <chr> 
#>  1 01-701-1015 DIABP    SCREENING 1              815       64 <NA>  
#>  2 01-701-1015 DIABP    SCREENING 1              816       83 <NA>  
#>  3 01-701-1015 DIABP    SCREENING 1              817       57 Y     
#>  4 01-701-1015 DIABP    SCREENING 2              815       68 <NA>  
#>  5 01-701-1015 DIABP    SCREENING 2              816       59 <NA>  
#>  6 01-701-1015 DIABP    SCREENING 2              817       71 Y     
#>  7 01-701-1015 DIABP    BASELINE                 815       56 <NA>  
#>  8 01-701-1015 DIABP    BASELINE                 816       51 <NA>  
#>  9 01-701-1015 DIABP    BASELINE                 817       61 <NA>  
#> 10 01-701-1015 DIABP    AMBUL ECG PLACEMENT      815       67 <NA>  
#> # … with 29,633 more rows
…
