Derive Last Dose — derive_vars_last_dose • admiral
…
ae %>%
  head(100) %>%
  derive_vars_last_dose(
    head(ex_single, 100),
    filter_ex = (EXDOSE > 0 | (EXDOSE == 0 & grepl("PLACEBO", EXTRT))) &
      nchar(EXENDTC) >= 10,
    new_vars = vars(EXDOSE, EXTRT, EXSEQ, EXENDTC, VISIT),
    dose_date = EXENDTC,
    analysis_date = AESTDTC,
    single_dose_condition = (EXSTDTC == EXENDTC)
  ) %>%
  select(STUDYID, USUBJID, AESEQ, AESTDTC, EXDOSE, EXTRT, EXENDTC, EXSEQ, VISIT)
#> # A tibble: 100 x 9
#>    STUDYID     USUBJID    AESEQ AESTDTC    EXDOSE EXTRT  EXENDTC   EXSEQ VISIT  
#>    <chr>       <chr>      <dbl> <chr>       <dbl> <chr>  <chr>     <int> <chr>  
#>  1 CDISCPILOT… 01-701-10…     1 2014-01-03     NA <NA>   <NA>         NA <NA>   
#>  2 CDISCPILOT… 01-701-10…     2 2014-01-03     NA <NA>   <NA>         NA <NA>   
#>  3 CDISCPILOT… 01-701-10…     3 2014-01-09     NA <NA>   <NA>         NA <NA>   
#>  4 CDISCPILOT… 01-701-10…     3 2012-08-26      0 PLACE… 2012-08-…     7 BASELI…
#>  5 CDISCPILOT… 01-701-10…     1 2012-08-07      0 PLACE… 2012-08-…     3 BASELI…
#>  6 CDISCPILOT… 01-701-10…     2 2012-08-07      0 PLACE… 2012-08-…     3 BASELI…
#>  7 CDISCPILOT… 01-701-10…     4 2012-08-07      0 PLACE… 2012-08-…     3 BASELI…
#>  8 CDISCPILOT… 01-701-10…     1 2013-07-21     NA <NA>   <NA>         NA <NA>   
#>  9 CDISCPILOT… 01-701-10…     2 2013-08-08     NA <NA>   <NA>         NA <NA>   
#> 10 CDISCPILOT… 01-701-10…     1 2014-08-27     NA <NA>   <NA>         NA <NA>   
#> # … with 90 more rows
# or with traceability variables
ae %>%
  head(100) %>%
  derive_vars_last_dose(
    head(ex_single, 100),
    filter_ex = (EXDOSE > 0 | (EXDOSE == 0 & grepl("PLACEBO", EXTRT))) &
      nchar(EXENDTC) >= 10,
    new_vars = vars(EXDOSE, EXTRT, EXSEQ, EXENDTC, VISIT),
    dose_date = EXENDTC,
    analysis_date = AESTDTC,
    single_dose_condition = (EXSTDTC == EXENDTC),
    traceability_vars = dplyr::vars(LDOSEDOM = "EX", LDOSESEQ = EXSEQ, LDOSEVAR = "EXENDTC")
  ) %>%
  select(STUDYID, USUBJID, AESEQ, AESTDTC, EXDOSE, EXTRT, EXENDTC, LDOSEDOM, LDOSESEQ, LDOSEVAR)
#> # A tibble: 100 x 10
#>    STUDYID USUBJID AESEQ AESTDTC EXDOSE EXTRT EXENDTC LDOSEDOM LDOSESEQ LDOSEVAR
#>    <chr>   <chr>   <dbl> <chr>    <dbl> <chr> <chr>   <chr>       <int> <chr>   
#>  1 CDISCP… 01-701…     1 2014-0…     NA <NA>  <NA>    <NA>           NA <NA>    
#>  2 CDISCP… 01-701…     2 2014-0…     NA <NA>  <NA>    <NA>           NA <NA>    
#>  3 CDISCP… 01-701…     3 2014-0…     NA <NA>  <NA>    <NA>           NA <NA>    
#>  4 CDISCP… 01-701…     3 2012-0…      0 PLAC… 2012-0… EX              7 EXENDTC 
#>  5 CDISCP… 01-701…     1 2012-0…      0 PLAC… 2012-0… EX              3 EXENDTC 
#>  6 CDISCP… 01-701…     2 2012-0…      0 PLAC… 2012-0… EX              3 EXENDTC 
#>  7 CDISCP… 01-701…     4 2012-0…      0 PLAC… 2012-0… EX              3 EXENDTC 
#>  8 CDISCP… 01-701…     1 2013-0…     NA <NA>  <NA>    <NA>           NA <NA>    
#>  9 CDISCP… 01-701…     2 2013-0…     NA <NA>  <NA>    <NA>           NA <NA>    
#> 10 CDISCP… 01-701…     1 2014-0…     NA <NA>  <NA>    <NA>           NA <NA>    
#> # … with 90 more rows
…
