Merge a (Imputed) Datetime Variable — derive_vars_merged_dtm • admiral
…
# derive treatment start datetime (TRTSDTM)
derive_vars_merged_dtm(
  select(admiral_dm, STUDYID, USUBJID),
  dataset_add = admiral_ex,
  by_vars = vars(STUDYID, USUBJID),
  new_vars_prefix = "TRTS",
  dtc = EXSTDTC,
  date_imputation = "first",
  time_imputation = "first",
  order = vars(TRTSDTM),
  mode = "first"
)
#> # A tibble: 306 x 5
#>    STUDYID      USUBJID     TRTSDTM             TRTSDTF TRTSTMF
#>    <chr>        <chr>       <dttm>              <chr>   <chr>  
#>  1 CDISCPILOT01 01-701-1015 2014-01-02 00:00:00 NA      H      
#>  2 CDISCPILOT01 01-701-1023 2012-08-05 00:00:00 NA      H      
#>  3 CDISCPILOT01 01-701-1028 2013-07-19 00:00:00 NA      H      
#>  4 CDISCPILOT01 01-701-1033 2014-03-18 00:00:00 NA      H      
#>  5 CDISCPILOT01 01-701-1034 2014-07-01 00:00:00 NA      H      
#>  6 CDISCPILOT01 01-701-1047 2013-02-12 00:00:00 NA      H      
#>  7 CDISCPILOT01 01-701-1057 NA                  NA      NA     
#>  8 CDISCPILOT01 01-701-1097 2014-01-01 00:00:00 NA      H      
#>  9 CDISCPILOT01 01-701-1111 2012-09-07 00:00:00 NA      H      
#> 10 CDISCPILOT01 01-701-1115 2012-11-30 00:00:00 NA      H      
#> # … with 296 more rows

# derive treatment end datetime (TRTEDTM) (without date imputation)
derive_vars_merged_dtm(
  select(admiral_dm, STUDYID, USUBJID),
  dataset_add = admiral_ex,
  by_vars = vars(STUDYID, USUBJID),
  new_vars_prefix = "TRTE",
  dtc = EXENDTC,
  time_imputation = "last",
  order = vars(TRTEDTM),
  mode = "last"
)
#> # A tibble: 306 x 4
#>    STUDYID      USUBJID     TRTEDTM             TRTETMF
#>    <chr>        <chr>       <dttm>              <chr>  
#>  1 CDISCPILOT01 01-701-1015 2014-07-02 23:59:59 H      
#>  2 CDISCPILOT01 01-701-1023 2012-09-01 23:59:59 H      
#>  3 CDISCPILOT01 01-701-1028 2014-01-14 23:59:59 H      
#>  4 CDISCPILOT01 01-701-1033 2014-03-31 23:59:59 H      
#>  5 CDISCPILOT01 01-701-1034 2014-12-30 23:59:59 H      
#>  6 CDISCPILOT01 01-701-1047 2013-03-09 23:59:59 H      
#>  7 CDISCPILOT01 01-701-1057 NA                  NA     
#>  8 CDISCPILOT01 01-701-1097 2014-07-09 23:59:59 H      
#>  9 CDISCPILOT01 01-701-1111 2012-09-16 23:59:59 H      
#> 10 CDISCPILOT01 01-701-1115 2013-01-23 23:59:59 H      
#> # … with 296 more rows
…
