Derive Last Known Alive Date — derive_var_lstalvdt • admiral
…
dm %>%
  derive_var_lstalvdt(ae_start, ae_end, lb_date, adsl_date) %>%
  select(USUBJID, LSTALVDT)
#> # A tibble: 306 x 2
#>    USUBJID     LSTALVDT  
#>    <chr>       <date>    
#>  1 01-701-1015 2014-07-02
#>  2 01-701-1023 2012-09-02
#>  3 01-701-1028 2014-01-14
#>  4 01-701-1033 2014-04-14
#>  5 01-701-1034 2014-12-30
#>  6 01-701-1047 2013-04-07
#>  7 01-701-1057 NA        
#>  8 01-701-1097 2014-07-09
#>  9 01-701-1111 2012-09-17
#> 10 01-701-1115 2013-01-23
#> # … with 296 more rows
…
adsl_date <- lstalvdt_source(
  dataset = adsl,
  date = TRTEDT,
  traceability_vars = vars(
    LALVDOM = "ADSL",
    LALVSEQ = NA_integer_,
    LALVVAR = "TRTEDTM"
  )
)

dm %>%
  derive_var_lstalvdt(ae_start, ae_end, lb_date, adsl_date) %>%
  select(USUBJID, LSTALVDT, LALVDOM, LALVSEQ, LALVVAR)
#> # A tibble: 306 x 5
#>    USUBJID     LSTALVDT   LALVDOM LALVSEQ LALVVAR
#>    <chr>       <date>     <chr>     <dbl> <chr>  
#>  1 01-701-1015 2014-07-02 ADSL         NA TRTEDTM
#>  2 01-701-1023 2012-09-02 LB          107 LBDTC  
#>  3 01-701-1028 2014-01-14 ADSL         NA TRTEDTM
#>  4 01-701-1033 2014-04-14 LB          107 LBDTC  
#>  5 01-701-1034 2014-12-30 ADSL         NA TRTEDTM
#>  6 01-701-1047 2013-04-07 LB          134 LBDTC  
#>  7 01-701-1057 NA         <NA>         NA <NA>   
#>  8 01-701-1097 2014-07-09 ADSL         NA TRTEDTM
#>  9 01-701-1111 2012-09-17 LB           73 LBDTC  
#> 10 01-701-1115 2013-01-23 ADSL         NA TRTEDTM
#> # … with 296 more rows
…
