Derive First or Last Datetime from Multiple Sources — derive_var_extreme_dtm • admiral
…
adsl_date <- date_source(dataset_name = "adsl", date = TRTEDTM)

admiral_dm %>%
  derive_var_extreme_dtm(
    new_var = LSTALVDTM,
    ae_start, ae_end, lb_date, adsl_date,
    source_datasets = list(
      adsl = admiral_adsl,
      ae = ae_ext, lb = lb_ext
    ),
    mode = "last"
  ) %>%
  select(USUBJID, LSTALVDTM)
#> # A tibble: 306 x 2
#>    USUBJID     LSTALVDTM          
#>    <chr>       <dttm>             
#>  1 01-701-1015 2014-07-02 23:59:59
#>  2 01-701-1023 2012-09-02 10:15:00
#>  3 01-701-1028 2014-01-14 23:59:59
#>  4 01-701-1033 2014-04-14 10:38:00
#>  5 01-701-1034 2014-12-30 23:59:59
#>  6 01-701-1047 2013-04-07 11:20:00
#>  7 01-701-1057 NA                 
#>  8 01-701-1097 2014-07-09 23:59:59
#>  9 01-701-1111 2012-09-17 11:48:00
#> 10 01-701-1115 2013-01-23 23:59:59
#> # … with 296 more rows
…
admiral_dm %>%
  derive_var_extreme_dtm(
    new_var = LSTALVDTM,
    ae_start, ae_end, lb_date, adsl_date,
    source_datasets = list(
      adsl = admiral_adsl,
      ae = ae_ext,
      lb = lb_ext
    ),
    mode = "last"
  ) %>%
  select(USUBJID, LSTALVDTM, LALVDOM, LALVSEQ, LALVVAR)
#> # A tibble: 306 x 5
#>    USUBJID     LSTALVDTM           LALVDOM LALVSEQ LALVVAR
#>    <chr>       <dttm>              <chr>     <dbl> <chr>  
#>  1 01-701-1015 2014-07-02 23:59:59 ADSL         NA TRTEDTM
#>  2 01-701-1023 2012-09-02 10:15:00 LB          107 LBDTC  
#>  3 01-701-1028 2014-01-14 23:59:59 ADSL         NA TRTEDTM
#>  4 01-701-1033 2014-04-14 10:38:00 LB          107 LBDTC  
#>  5 01-701-1034 2014-12-30 23:59:59 ADSL         NA TRTEDTM
#>  6 01-701-1047 2013-04-07 11:20:00 LB          134 LBDTC  
#>  7 01-701-1057 NA                  NA           NA NA     
#>  8 01-701-1097 2014-07-09 23:59:59 ADSL         NA TRTEDTM
#>  9 01-701-1111 2012-09-17 11:48:00 LB           73 LBDTC  
#> 10 01-701-1115 2013-01-23 23:59:59 ADSL         NA TRTEDTM
#> # … with 296 more rows
…
