Default Format for the Disposition Reason — format_reason_default • admiral
…
# Derive DCSREAS using format_reason_default
admiral_dm %>%
  derive_vars_disposition_reason(
    dataset_ds = admiral_ds,
    new_var = DCSREAS,
    reason_var = DSDECOD,
    format_new_vars = format_reason_default,
    filter_ds = DSCAT == "DISPOSITION EVENT"
  ) %>%
  select(STUDYID, USUBJID, DCSREAS)
#> # A tibble: 306 x 3
#>    STUDYID      USUBJID     DCSREAS                    
#>    <chr>        <chr>       <chr>                      
#>  1 CDISCPILOT01 01-701-1015 NA                         
#>  2 CDISCPILOT01 01-701-1023 ADVERSE EVENT              
#>  3 CDISCPILOT01 01-701-1028 NA                         
#>  4 CDISCPILOT01 01-701-1033 STUDY TERMINATED BY SPONSOR
#>  5 CDISCPILOT01 01-701-1034 NA                         
#>  6 CDISCPILOT01 01-701-1047 ADVERSE EVENT              
#>  7 CDISCPILOT01 01-701-1057 SCREEN FAILURE             
#>  8 CDISCPILOT01 01-701-1097 NA                         
#>  9 CDISCPILOT01 01-701-1111 ADVERSE EVENT              
#> 10 CDISCPILOT01 01-701-1115 ADVERSE EVENT              
#> # … with 296 more rows
…
