…
  "PILOT01",    "VS", "01-716-1229",   "PULSE",         3,       815,
  "PILOT01",    "VS", "01-716-1229",   "PULSE",         3,       816,
  "PILOT01",    "VS", "01-716-1229",   "PULSE",         4,       815,
  "PILOT01",    "VS", "01-716-1229",   "PULSE",         4,       816,
  "PILOT01",    "VS", "01-716-1229",   "SYSBP",         3,       815,
  "PILOT01",    "VS", "01-716-1229",   "SYSBP",         3,       816,
  "PILOT01",    "VS", "01-716-1229",   "SYSBP",         4,       815,
  "PILOT01",    "VS", "01-716-1229",   "SYSBP",         4,       816
)
vs %>%
  derive_var_obs_number(
    by_vars = exprs(USUBJID, VSTESTCD),
    order = exprs(VISITNUM, desc(VSTPTNUM))
  )
#> # A tibble: 24 × 7
#>    STUDYID DOMAIN USUBJID     VSTESTCD VISITNUM VSTPTNUM  ASEQ
#>    <chr>   <chr>  <chr>       <chr>       <dbl>    <dbl> <int>
#>  1 PILOT01 VS     01-703-1182 DIABP           3      816     1
#>  2 PILOT01 VS     01-703-1182 DIABP           3      815     2
#>  3 PILOT01 VS     01-703-1182 DIABP           4      816     3
#>  4 PILOT01 VS     01-703-1182 DIABP           4      815     4
#>  5 PILOT01 VS     01-703-1182 PULSE           3      816     1
#>  6 PILOT01 VS     01-703-1182 PULSE           3      815     2
#>  7 PILOT01 VS     01-703-1182 PULSE           4      816     3
#>  8 PILOT01 VS     01-703-1182 PULSE           4      815     4
#>  9 PILOT01 VS     01-703-1182 SYSBP           3      816     1
#> 10 PILOT01 VS     01-703-1182 SYSBP           3      815     2
#> # ℹ 14 more rows
```
