Creates a queries dataset as input dataset to the dataset_queries argument in derive_vars_query() — create_query_data • admiral
…
# The get_terms function from pharmaversesdtm is used for this example.
# In a real application a company-specific function must be used.
create_query_data(
  queries = list(pregsmq, bilismq),
  get_terms_fun = pharmaversesdtm:::get_terms,
  version = "20.1"
)
#> # A tibble: 43 × 7
#>    TERMCHAR                           SRCVAR GRPNAME  GRPID SCOPE PREFIX VERSION
#>    <chr>                              <chr>  <chr>    <int> <chr> <chr>  <chr>  
#>  1 Achromotrichia congenital          AEDEC… Pregna… 2.00e7 NARR… SMQ02  20.1   
#>  2 Craniosynostosis                   AEDEC… Pregna… 2.00e7 NARR… SMQ02  20.1   
#>  3 Hypophosphatasia                   AEDEC… Pregna… 2.00e7 NARR… SMQ02  20.1   
#>  4 Congenital pyelocaliectasis        AEDEC… Pregna… 2.00e7 NARR… SMQ02  20.1   
#>  5 Uterine contractions during pregn… AEDEC… Pregna… 2.00e7 NARR… SMQ02  20.1   
#>  6 Ductus arteriosus premature closu… AEDEC… Pregna… 2.00e7 NARR… SMQ02  20.1   
#>  7 Pseudotruncus arteriosus           AEDEC… Pregna… 2.00e7 NARR… SMQ02  20.1   
#>  8 Lipomeningocele                    AEDEC… Pregna… 2.00e7 NARR… SMQ02  20.1   
#>  9 Macrocephaly                       AEDEC… Pregna… 2.00e7 NARR… SMQ02  20.1   
#> 10 Carnitine palmitoyltransferase de… AEDEC… Pregna… 2.00e7 NARR… SMQ02  20.1   
#> # ℹ 33 more rows
…
      name = "Special issues of interest",
      definition = list(
        basket_select(
          name = "Pregnancy and neonatal topics (SMQ)",
          scope = "NARROW",
          type = "smq"
        ),
        cqterms
      )
    )
  ),
  get_terms_fun = pharmaversesdtm:::get_terms,
  version = "20.1"
)
#> # A tibble: 23 × 6
#>    TERMCHAR                                SRCVAR GRPNAME TERMNUM PREFIX VERSION
#>    <chr>                                   <chr>  <chr>     <int> <chr>  <chr>  
#>  1 Achromotrichia congenital               AEDEC… Specia…      NA CQ03   20.1   
#>  2 Craniosynostosis                        AEDEC… Specia…      NA CQ03   20.1   
#>  3 Hypophosphatasia                        AEDEC… Specia…      NA CQ03   20.1   
#>  4 Congenital pyelocaliectasis             AEDEC… Specia…      NA CQ03   20.1   
#>  5 Uterine contractions during pregnancy   AEDEC… Specia…      NA CQ03   20.1   
#>  6 Ductus arteriosus premature closure     AEDEC… Specia…      NA CQ03   20.1   
#>  7 Pseudotruncus arteriosus                AEDEC… Specia…      NA CQ03   20.1   
#>  8 Lipomeningocele                         AEDEC… Specia…      NA CQ03   20.1   
#>  9 Macrocephaly                            AEDEC… Specia…      NA CQ03   20.1   
#> 10 Carnitine palmitoyltransferase deficie… AEDEC… Specia…      NA CQ03   20.1   
#> # ℹ 13 more rows
…
