Derive LOCF (Last Observation Carried Forward) Records — derive_locf_records • admiral
…
derive_locf_records(
  dataset = advs,
  dataset_ref = advs_expected_obsv,
  by_vars = exprs(STUDYID, USUBJID, PARAMCD),
  order = exprs(AVISITN, AVISIT),
  keep_vars = exprs(PARAMN)
) |>
  arrange(USUBJID, PARAMCD, AVISIT)
#> # A tibble: 22 × 8
#>    STUDYID USUBJID     PARAMCD PARAMN  AVAL AVISITN AVISIT   DTYPE
#>    <chr>   <chr>       <chr>    <dbl> <dbl>   <dbl> <chr>    <chr>
#>  1 CDISC01 01-701-1015 DIABP        2    79       0 BASELINE NA   
#>  2 CDISC01 01-701-1015 DIABP        2    80       2 WEEK 2   NA   
#>  3 CDISC01 01-701-1015 DIABP        2    80       4 WEEK 4   LOCF 
#>  4 CDISC01 01-701-1015 DIABP        2    NA       4 WEEK 4   NA   
#>  5 CDISC01 01-701-1015 DIABP        2    80       6 WEEK 6   LOCF 
#>  6 CDISC01 01-701-1015 DIABP        2    NA       6 WEEK 6   NA   
#>  7 CDISC01 01-701-1015 PULSE        1    65       0 BASELINE NA   
#>  8 CDISC01 01-701-1015 PULSE        1    65       6 WEEK 6   LOCF 
#>  9 CDISC01 01-701-1015 SYSBP        3   130       0 BASELINE NA   
#> 10 CDISC01 01-701-1015 SYSBP        3   132       2 WEEK 2   NA   
#> # ℹ 12 more rows
…
