Add New Records Within By Groups Using Aggregation Functions — derive_summary_records • admiral
…
# Summarize the average of the triplicate ECG interval values (AVAL)
derive_summary_records(
  adeg,
  dataset_add = adeg,
  by_vars = exprs(USUBJID, PARAM, AVISIT),
  set_values_to = exprs(
    AVAL = mean(AVAL, na.rm = TRUE),
    DTYPE = "AVERAGE"
  )
) %>%
  arrange(USUBJID, AVISIT)
#> # A tibble: 24 × 9
#>    USUBJID  EGSEQ PARAM       AVISIT EGDTC  AVAL TRTA  ADTM                DTYPE
#>    <chr>    <dbl> <chr>       <chr>  <chr> <dbl> <chr> <dttm>              <chr>
#>  1 XYZ-1001     1 QTcF Int. … Basel… 2016…  385  NA    2016-02-24 07:50:00 NA   
#>  2 XYZ-1001     2 QTcF Int. … Basel… 2016…  399  NA    2016-02-24 07:52:00 NA   
#>  3 XYZ-1001     3 QTcF Int. … Basel… 2016…  396  NA    2016-02-24 07:56:00 NA   
#>  4 XYZ-1001    NA QTcF Int. … Basel… NA     393. NA    NA                  AVER…
#>  5 XYZ-1001     4 QTcF Int. … Visit… 2016…  384  Plac… 2016-03-08 09:45:00 NA   
#>  6 XYZ-1001     5 QTcF Int. … Visit… 2016…  393  Plac… 2016-03-08 09:48:00 NA   
#>  7 XYZ-1001     6 QTcF Int. … Visit… 2016…  388  Plac… 2016-03-08 09:51:00 NA   
#>  8 XYZ-1001    NA QTcF Int. … Visit… NA     388. NA    NA                  AVER…
#>  9 XYZ-1001     7 QTcF Int. … Visit… 2016…  385  Plac… 2016-03-22 10:45:00 NA   
#> 10 XYZ-1001     8 QTcF Int. … Visit… 2016…  394  Plac… 2016-03-22 10:48:00 NA   
#> # ℹ 14 more rows

# Derive more than one summary variable
derive_summary_records(
  adeg,
  dataset_add = adeg,
  by_vars = exprs(USUBJID, PARAM, AVISIT),
  set_values_to = exprs(
    AVAL = mean(AVAL),
    ADTM = max(ADTM),
    DTYPE = "AVERAGE"
  )
) %>%
  arrange(USUBJID, AVISIT) %>%
  select(-EGSEQ, -TRTA)
#> # A tibble: 24 × 7
#>    USUBJID  PARAM            AVISIT   EGDTC       AVAL ADTM                DTYPE
#>    <chr>    <chr>            <chr>    <chr>      <dbl> <dttm>              <chr>
#>  1 XYZ-1001 QTcF Int. (msec) Baseline 2016-02-2…  385  2016-02-24 07:50:00 NA   
#>  2 XYZ-1001 QTcF Int. (msec) Baseline 2016-02-2…  399  2016-02-24 07:52:00 NA   
#>  3 XYZ-1001 QTcF Int. (msec) Baseline 2016-02-2…  396  2016-02-24 07:56:00 NA   
#>  4 XYZ-1001 QTcF Int. (msec) Baseline NA          393. 2016-02-24 07:56:00 AVER…
#>  5 XYZ-1001 QTcF Int. (msec) Visit 2  2016-03-0…  384  2016-03-08 09:45:00 NA   
#>  6 XYZ-1001 QTcF Int. (msec) Visit 2  2016-03-0…  393  2016-03-08 09:48:00 NA   
#>  7 XYZ-1001 QTcF Int. (msec) Visit 2  2016-03-0…  388  2016-03-08 09:51:00 NA   
#>  8 XYZ-1001 QTcF Int. (msec) Visit 2  NA          388. 2016-03-08 09:51:00 AVER…
#>  9 XYZ-1001 QTcF Int. (msec) Visit 3  2016-03-2…  385  2016-03-22 10:45:00 NA   
#> 10 XYZ-1001 QTcF Int. (msec) Visit 3  2016-03-2…  394  2016-03-22 10:48:00 NA   
#> # ℹ 14 more rows
…
