Creating an Exposure (BDS) ADaM • admiral
…
adex <- adex %>%
  mutate(
    AVALCAT = case_when(
      PARAMCD %in% c("TDURD", "PDURD") & AVAL < 30 ~ "< 30 days",
      PARAMCD %in% c("TDURD", "PDURD") & AVAL >= 30 & AVAL < 90 ~ ">= 30 and < 90 days",
      PARAMCD %in% c("TDURD", "PDURD") & AVAL >= 90 ~ ">=90 days",
      PARAMCD %in% c("TDOSE", "PDOSE") & AVAL < 100 ~ "< 100 mg",
      PARAMCD %in% c("TDOSE", "PDOSE") & AVAL >= 100 ~ ">= 100 mg",
      TRUE ~ NA_character_
    )
  )

distinct(filter(adex, PARAMCD %in% c("TDURD", "PDURD")), PARAMCD, AVAL, AVALCAT)
#> # A tibble: 117 x 3
#>    PARAMCD  AVAL AVALCAT            
#>    <chr>   <dbl> <chr>              
#>  1 TDURD     182 >=90 days          
#>  2 TDURD      28 < 30 days          
#>  3 TDURD     180 >=90 days          
#>  4 TDURD      14 < 30 days          
#>  5 TDURD     183 >=90 days          
#>  6 TDURD      26 < 30 days          
#>  7 TDURD     190 >=90 days          
#>  8 TDURD      10 < 30 days          
#>  9 TDURD      55 >= 30 and < 90 days
#> 10 TDURD      38 >= 30 and < 90 days
#> # … with 107 more rows
…
