Creating an OCCDS ADaM • admiral
…
Similarly, ASEV can also be used to derive the occurrence flags if severity is collected. In this case, the variable may need to be firstly recorded into a numeric one:

adae %>%
  mutate(
    ASEVN = as.integer(factor(ASEV, levels = c("MILD", "MODERATE", "SEVERE", "DEATH THREATENING")))
  ) %>%
  derive_extreme_flag(
    by_vars = vars(USUBJID),
    order = vars(ASTDTM, ASEVN, AESEQ),
    new_var = AOCCIFL,
    filter = TRTEMFL == "Y",
    mode = "last"
  ) %>%
  select(STUDYID, USUBJID, AOCCIFL, ASTDTM, ASEVN, AESEQ, TRTEMFL)
#> # A tibble: 1,191 x 7
#>    STUDYID      USUBJID     AOCCIFL ASTDTM              ASEVN AESEQ TRTEMFL
#>    <chr>        <chr>       <chr>   <dttm>              <int> <dbl> <chr>  
#>  1 CDISCPILOT01 01-701-1015 <NA>    2014-01-03 00:00:00     1     1 Y      
#>  2 CDISCPILOT01 01-701-1015 <NA>    2014-01-03 00:00:00     1     2 Y      
#>  3 CDISCPILOT01 01-701-1015 Y       2014-01-09 00:00:00     1     3 Y      
#>  4 CDISCPILOT01 01-701-1023 <NA>    2012-08-07 00:00:00     1     1 Y      
#>  5 CDISCPILOT01 01-701-1023 <NA>    2012-08-07 00:00:00     1     4 Y      
#>  6 CDISCPILOT01 01-701-1023 <NA>    2012-08-07 00:00:00     2     2 Y      
#>  7 CDISCPILOT01 01-701-1023 Y       2012-08-26 00:00:00     1     3 Y      
#>  8 CDISCPILOT01 01-701-1028 <NA>    2013-07-21 00:00:00     1     1 Y      
#>  9 CDISCPILOT01 01-701-1028 Y       2013-08-08 00:00:00     1     2 Y      
#> 10 CDISCPILOT01 01-701-1034 <NA>    2014-08-27 00:00:00     1     1 Y      
#> # … with 1,181 more rows
…
